%YAML 1.1
%TAG !u! tag:unity3d.com,2011:
--- !u!1 &2116805049678501968
GameObject:
  m_ObjectHideFlags: 0
  m_CorrespondingSourceObject: {fileID: 0}
  m_PrefabInstance: {fileID: 0}
  m_PrefabAsset: {fileID: 0}
  serializedVersion: 6
  m_Component:
  - component: {fileID: 2116805049678501964}
  - component: {fileID: 2116805049678501965}
  - component: {fileID: 2116805049678501966}
  - component: {fileID: 2116805049678501967}
  - component: {fileID: 302069881338433685}
  m_Layer: 0
  m_Name: Dodger
  m_TagString: Enemy
  m_Icon: {fileID: 0}
  m_NavMeshLayer: 0
  m_StaticEditorFlags: 0
  m_IsActive: 1
--- !u!4 &2116805049678501964
Transform:
  m_ObjectHideFlags: 0
  m_CorrespondingSourceObject: {fileID: 0}
  m_PrefabInstance: {fileID: 0}
  m_PrefabAsset: {fileID: 0}
  m_GameObject: {fileID: 2116805049678501968}
  m_LocalRotation: {x: 0, y: 0, z: 0, w: 1}
  m_LocalPosition: {x: 0.81214404, y: -0.9281347, z: 0}
  m_LocalScale: {x: 0.6, y: 0.6, z: 1}
  m_Children:
  - {fileID: 948276179451897672}
  m_Father: {fileID: 0}
  m_RootOrder: 0
  m_LocalEulerAnglesHint: {x: 0, y: 0, z: 0}
--- !u!212 &2116805049678501965
SpriteRenderer:
  m_ObjectHideFlags: 0
  m_CorrespondingSourceObject: {fileID: 0}
  m_PrefabInstance: {fileID: 0}
  m_PrefabAsset: {fileID: 0}
  m_GameObject: {fileID: 2116805049678501968}
  m_Enabled: 1
  m_CastShadows: 0
  m_ReceiveShadows: 0
  m_DynamicOccludee: 1
  m_MotionVectors: 1
  m_LightProbeUsage: 1
  m_ReflectionProbeUsage: 1
  m_RenderingLayerMask: 1
  m_RendererPriority: 0
  m_Materials:
  - {fileID: 10754, guid: 0000000000000000f000000000000000, type: 0}
  m_StaticBatchInfo:
    firstSubMesh: 0
    subMeshCount: 0
  m_StaticBatchRoot: {fileID: 0}
  m_ProbeAnchor: {fileID: 0}
  m_LightProbeVolumeOverride: {fileID: 0}
  m_ScaleInLightmap: 1
  m_PreserveUVs: 0
  m_IgnoreNormalsForChartDetection: 0
  m_ImportantGI: 0
  m_StitchLightmapSeams: 0
  m_SelectedEditorRenderState: 0
  m_MinimumChartSize: 4
  m_AutoUVMaxDistance: 0.5
  m_AutoUVMaxAngle: 89
  m_LightmapParameters: {fileID: 0}
  m_SortingLayerID: 0
  m_SortingLayer: 0
  m_SortingOrder: 0
  m_Sprite: {fileID: 21300000, guid: d25dcb0378fbf114f88db5d59465c1ee, type: 3}
  m_Color: {r: 1, g: 1, b: 1, a: 1}
  m_FlipX: 0
  m_FlipY: 0
  m_DrawMode: 0
  m_Size: {x: 3.2, y: 3.2}
  m_AdaptiveModeThreshold: 0.5
  m_SpriteTileMode: 0
  m_WasSpriteAssigned: 1
  m_MaskInteraction: 0
  m_SpriteSortPoint: 0
--- !u!60 &2116805049678501966
PolygonCollider2D:
  m_ObjectHideFlags: 0
  m_CorrespondingSourceObject: {fileID: 0}
  m_PrefabInstance: {fileID: 0}
  m_PrefabAsset: {fileID: 0}
  m_GameObject: {fileID: 2116805049678501968}
  m_Enabled: 1
  m_Density: 1
  m_Material: {fileID: 0}
  m_IsTrigger: 0
  m_UsedByEffector: 0
  m_UsedByComposite: 0
  m_Offset: {x: 0, y: 0}
  m_SpriteTilingProperty:
    border: {x: 0, y: 0, z: 0, w: 0}
    pivot: {x: 0.5, y: 0.5}
    oldSize: {x: 3.2, y: 3.2}
    newSize: {x: 3.2, y: 3.2}
    adaptiveTilingThreshold: 0.5
    drawMode: 0
    adaptiveTiling: 0
  m_AutoTiling: 0
  m_Points:
    m_Paths:
    - - {x: 0.08, y: -0.64}
      - {x: 0.03, y: -0.62}
      - {x: 0.03, y: -0.53999996}
      - {x: -0.01, y: -0.51}
      - {x: -0.03, y: -0.41}
      - {x: -0.12, y: -0.35999998}
      - {x: -0.12, y: -0.29}
      - {x: -0.17, y: -0.26999998}
      - {x: -0.17, y: -0.16}
      - {x: -0.17999999, y: -0.12}
      - {x: 0.12, y: -0.22}
      - {x: 0.24, y: -0.29}
      - {x: 0.45, y: -0.26999998}
      - {x: 0.47, y: -0.25}
      - {x: 0.47, y: -0.12}
      - {x: 0.91999996, y: -0.22}
      - {x: 1.04, y: -0.29}
      - {x: 1.25, y: -0.26999998}
      - {x: 1.27, y: -0.25}
      - {x: 1.27, y: -0.12}
      - {x: 1.41, y: -0.13}
      - {x: 1.4699999, y: -0.07}
      - {x: 1.4699999, y: 0.07}
      - {x: 1.43, y: 0.11}
      - {x: 1.25, y: 0.26999998}
      - {x: 1.05, y: 0.26999998}
      - {x: 0.94, y: 0.24}
      - {x: 0.90999997, y: 0.13}
      - {x: 0.47, y: 0.25}
      - {x: 0.45, y: 0.26999998}
      - {x: 0.25, y: 0.26999998}
      - {x: 0.14, y: 0.24}
      - {x: 0.11, y: 0.13}
      - {x: -0.17999999, y: 0.16}
      - {x: -0.06, y: 0.42}
      - {x: -0.03, y: 0.44}
      - {x: 0.12, y: 0.75}
      - {x: 0.12, y: 1.1999999}
      - {x: 0.099999994, y: 1.22}
      - {x: -0.049999997, y: 1.22}
      - {x: -0.11, y: 1.18}
      - {x: -0.26999998, y: 1.03}
      - {x: -0.38, y: 0.90999997}
      - {x: -0.42, y: 0.79999995}
      - {x: -0.52, y: 0.55}
      - {x: -0.63, y: 0.22999999}
      - {x: -0.84, y: 0.38}
      - {x: -1.01, y: 0.38}
      - {x: -1.0699999, y: 0.34}
      - {x: -1.22, y: 0.14999999}
      - {x: -1.26, y: 0.14}
      - {x: -1.37, y: 0.12}
      - {x: -1.37, y: 0.04}
      - {x: -1.3299999, y: 0.02}
      - {x: -1.37, y: -0.049999997}
      - {x: -1.37, y: -0.12}
      - {x: -1.25, y: -0.14}
      - {x: -1.03, y: -0.37}
      - {x: -0.84, y: -0.38}
      - {x: -0.74, y: -0.28}
      - {x: -0.68, y: -0.19999999}
      - {x: -0.59999996, y: -0.26999998}
      - {x: -0.58, y: -0.41}
      - {x: -0.53, y: -0.42999998}
      - {x: -0.53, y: -0.56}
      - {x: -0.48, y: -0.58}
      - {x: -0.48, y: -0.65999997}
      - {x: -0.42999998, y: -0.68}
      - {x: -0.42999998, y: -0.81}
      - {x: -0.39, y: -0.84}
      - {x: -0.35999998, y: -0.93}
      - {x: -0.13, y: -1.16}
      - {x: -0.049999997, y: -1.22}
      - {x: 0.099999994, y: -1.22}
      - {x: 0.12, y: -1.1999999}
      - {x: 0.12, y: -0.75}
      - {x: 0.099999994, y: -0.72999996}
--- !u!114 &2116805049678501967
MonoBehaviour:
  m_ObjectHideFlags: 0
  m_CorrespondingSourceObject: {fileID: 0}
  m_PrefabInstance: {fileID: 0}
  m_PrefabAsset: {fileID: 0}
  m_GameObject: {fileID: 2116805049678501968}
  m_Enabled: 1
  m_EditorHideFlags: 0
  m_Script: {fileID: 11500000, guid: 18de5fc9bec2b1544803bd542fa71578, type: 3}
  m_Name: 
  m_EditorClassIdentifier: 
  enemyName: dodgerfly
  enemyRarity: 1
  enemyMaxHP: 15
  remainingHP: 0
  enemyAtk: 10
  enemyDef: 10
  fireRate: 1
  timeOfNextShot: 0
  pointWorth: 10
  itemDropPercentage: 15
  timeSinceSpawn: 0
  facePlayer: 0
  persistent: 0
  enemyStayPos: 0
  sineWaveMovement: 1
  waveFrequency: 2
  waveAmplitude: 1.2
--- !u!82 &302069881338433685
AudioSource:
  m_ObjectHideFlags: 0
  m_CorrespondingSourceObject: {fileID: 0}
  m_PrefabInstance: {fileID: 0}
  m_PrefabAsset: {fileID: 0}
  m_GameObject: {fileID: 2116805049678501968}
  m_Enabled: 1
  serializedVersion: 4
  OutputAudioMixerGroup: {fileID: 0}
  m_audioClip: {fileID: 0}
  m_PlayOnAwake: 1
  m_Volume: 1
  m_Pitch: 1
  Loop: 0
  Mute: 0
  Spatialize: 0
  SpatializePostEffects: 0
  Priority: 128
  DopplerLevel: 1
  MinDistance: 1
  MaxDistance: 500
  Pan2D: 0
  rolloffMode: 0
  BypassEffects: 0
  BypassListenerEffects: 0
  BypassReverbZones: 0
  rolloffCustomCurve:
    serializedVersion: 2
    m_Curve:
    - serializedVersion: 3
      time: 0
      value: 1
      inSlope: 0
      outSlope: 0
      tangentMode: 0
      weightedMode: 0
      inWeight: 0.33333334
      outWeight: 0.33333334
    - serializedVersion: 3
      time: 1
      value: 0
      inSlope: 0
      outSlope: 0
      tangentMode: 0
      weightedMode: 0
      inWeight: 0.33333334
      outWeight: 0.33333334
    m_PreInfinity: 2
    m_PostInfinity: 2
    m_RotationOrder: 4
  panLevelCustomCurve:
    serializedVersion: 2
    m_Curve:
    - serializedVersion: 3
      time: 0
      value: 0
      inSlope: 0
      outSlope: 0
      tangentMode: 0
      weightedMode: 0
      inWeight: 0.33333334
      outWeight: 0.33333334
    m_PreInfinity: 2
    m_PostInfinity: 2
    m_RotationOrder: 4
  spreadCustomCurve:
    serializedVersion: 2
    m_Curve:
    - serializedVersion: 3
      time: 0
      value: 0
      inSlope: 0
      outSlope: 0
      tangentMode: 0
      weightedMode: 0
      inWeight: 0.33333334
      outWeight: 0.33333334
    m_PreInfinity: 2
    m_PostInfinity: 2
    m_RotationOrder: 4
  reverbZoneMixCustomCurve:
    serializedVersion: 2
    m_Curve:
    - serializedVersion: 3
      time: 0
      value: 1
      inSlope: 0
      outSlope: 0
      tangentMode: 0
      weightedMode: 0
      inWeight: 0.33333334
      outWeight: 0.33333334
    m_PreInfinity: 2
    m_PostInfinity: 2
    m_RotationOrder: 4
--- !u!1 &7193758087783196867
GameObject:
  m_ObjectHideFlags: 0
  m_CorrespondingSourceObject: {fileID: 0}
  m_PrefabInstance: {fileID: 0}
  m_PrefabAsset: {fileID: 0}
  serializedVersion: 6
  m_Component:
  - component: {fileID: 948276179451897672}
  m_Layer: 0
  m_Name: shotSpawn
  m_TagString: Untagged
  m_Icon: {fileID: 0}
  m_NavMeshLayer: 0
  m_StaticEditorFlags: 0
  m_IsActive: 1
--- !u!4 &948276179451897672
Transform:
  m_ObjectHideFlags: 0
  m_CorrespondingSourceObject: {fileID: 0}
  m_PrefabInstance: {fileID: 0}
  m_PrefabAsset: {fileID: 0}
  m_GameObject: {fileID: 7193758087783196867}
  m_LocalRotation: {x: 0, y: 0, z: 0, w: 1}
  m_LocalPosition: {x: -1.6, y: 0, z: 0}
  m_LocalScale: {x: 1, y: 1, z: 1}
  m_Children: []
  m_Father: {fileID: 2116805049678501964}
  m_RootOrder: 0
  m_LocalEulerAnglesHint: {x: 0, y: 0, z: 0}
