%YAML 1.1
%TAG !u! tag:unity3d.com,2011:
--- !u!114 &11400000
MonoBehaviour:
  m_ObjectHideFlags: 0
  m_CorrespondingSourceObject: {fileID: 0}
  m_PrefabInstance: {fileID: 0}
  m_PrefabAsset: {fileID: 0}
  m_GameObject: {fileID: 0}
  m_Enabled: 1
  m_EditorHideFlags: 0
  m_Script: {fileID: 11500000, guid: 63ba7630fc783074587382c4a4f3a30d, type: 3}
  m_Name: Haliaeetus
  m_EditorClassIdentifier: 
  maxHP: 65
  atk: 30
  def: 20
  spd: 9
  energy: 40
  defaultPrimary: {r: 0.3773585, g: 0.2584739, b: 0.0729797, a: 1}
  defaultSecondary: {r: 0.990566, g: 0.63570935, b: 0.1448469, a: 1}
  defaultTertiary: {r: 1, g: 1, b: 1, a: 1}
